id,movie_id,movie_title,movie_description,movie_url,movie_rating,movie_genre,movie_release
1,vid121,James Bonds 1,This is description of movie,https://www.linkmovie.com,9.2,Action,2011-12-12
2,vid122,Jackie Chan,This is description of movie,https://www.linkmovie.com,5.0,Action,2020-12-12
3,vid123,Barbarian,This is description of movie,https://www.linkmovie.com,3.3,Thriller,2021-12-12
4,vid124,Mr Bean,This is description of movie,https://www.linkmovie.com,8.5,Comedy,2015-12-12
5,vid125,Korean Love,This is description of movie,https://www.linkmovie.com,2.4,Drama,2012-12-12
6,vid126,Final Fantasy,This is description of movie,https://www.linkmovie.com,6.7,Fantasy,2013-12-12
7,vid127,Horror Movie,This is description of movie,https://www.linkmovie.com,7.3,Crime,2017-12-12
8,vid128,The Legend Of Messi,This is description of movie,https://www.linkmovie.com,9.5,Sport,2016-12-12
9,vid129,Story Of Me,This is description of movie,https://www.linkmovie.com,8.5,Sport,2012-12-12
10,vid1210,Black Adam,This is description of movie,https://www.linkmovie.com,9.2,Action,2019-12-12
11,vid1211,Interstellar,This is description of movie,https://www.linkmovie.com,8.2,Sci-fi,2000-12-12
12,vid1212,Detective Conan,This is description of movie,https://www.linkmovie.com,9.2,Action,2002-12-12
13,vid1213,Love You,This is description of movie,https://www.linkmovie.com,9.1,Romance,2003-12-12
14,vid1214,Misi,This is description of movie,https://www.linkmovie.com,8.4,Action,2010-12-12
15,vid1215,Angel Attack,This is description of movie,https://www.linkmovie.com,4.1,Action,2005-12-12
16,vid1216,What This House,This is description of movie,https://www.linkmovie.com,5.8,Mystery,2006-12-12
17,vid1217,Jumanji,This is description of movie,https://www.linkmovie.com,6.6,Mystery,2007-12-12
18,vid1218,Bullet Train,This is description of movie,https://www.linkmovie.com,7.5,Action,2010-12-12
19,vid1219,Top Gun,This is description of movie,https://www.linkmovie.com,6.6,Action,2008-12-12
20,vid1220,Love Me,This is description of movie,https://www.linkmovie.com,4.3,Romance,2009-12-12